Bayesian data analysis & cognitive modeling
…
## # A tibble: 2  2
##   dependent.measure mean.response
##               <chr>         <dbl>
## 1            binary     0.7854077
## 2           ordinal     0.6002222

get mean responses

resp.summary = d %>% dplyr::group_by(dependent.measure, alternatives, condition) %>% 
                     dplyr::summarize(mean.response = mean(response))
resp.summary

## Source: local data frame [44 x 4]
## Groups: dependent.measure, alternatives [?]
## 
##    dependent.measure alternatives condition mean.response
##                <chr>       <fctr>     <int>         <dbl>
## 1             binary       absent         0    0.09090909
## 2             binary       absent         1    0.47826087
## 3             binary       absent         2    0.77777778
## 4             binary       absent         3    0.95833333
## 5             binary       absent         4    0.96428571
## 6             binary       absent         5    1.00000000
## 7             binary       absent         6    0.93750000
## 8             binary       absent         7    0.98000000
## 9             binary       absent         8    0.92857143
## 10            binary       absent         9    0.96666667
## # ... with 34 more rows
…
